<svg xmlns="http://www.w3.org/2000/svg" height="40" width="40">
    <path
        d="M5 35V5h30v30Zm2.792-20.542h24.416V7.792H7.792Zm9.041 8.875h6.334v-6.125h-6.334Zm0 8.875h6.334v-6.083h-6.334Zm-9.041-8.875h6.291v-6.125H7.792Zm18.125 0h6.291v-6.125h-6.291ZM7.792 32.208h6.291v-6.083H7.792Zm18.125 0h6.291v-6.083h-6.291Z" />
</svg>