[
  {
    "id": 1,
    "name": "I-RO-HA",
    "type": "Variant of Polybius square",
    "path": "/real-ciphers/iroha"
  },
  {
    "id": 2,
    "name": "JN-25",
    "type": "Composed cipher",
    "path": "/real-ciphers/jn25"
  },
  {
    "id": 3,
    "name": "Cipher from Futurama (series)",
    "type": "Monoalphabetic substitution",
    "path": "/real-ciphers/cipher-from-futurama"
  },
  {
    "id": 4,
    "name": "Cipher from Batman (movie)",
    "type": "Monoalphabetic substitution",
    "path": "/real-ciphers/cipher-from-batman"
  },
  {
    "id": 5,
    "name": "Cipher from Martian (movie)",
    "type": "Monoalphabetic substitution",
    "path": "/real-ciphers/cipher-from-martian"
  },
  {
    "id": 6,
    "name": "Cipher from Mr. Robot (series)",
    "type": "Monoalphabetic substitution",
    "path": "/real-ciphers/cipher-from-mrrobot"
  }
]
